{
    "name": "Asteroid.Code",
    "rootNamespace": "",
    "references": [
        "GUID:75469ad4d38634e559750d17036d5f7c",
        "GUID:6055be8ebefd69e48b49212b09b47b2f",
        "GUID:9e24947de15b9834991c9d8411ea37cf",
        "GUID:84651a3751eca9349aac36a66bba901b"
    ],
    "includePlatforms": [],
    "excludePlatforms": [],
    "allowUnsafeCode": false,
    "overrideReferences": false,
    "precompiledReferences": [],
    "autoReferenced": true,
    "defineConstraints": [],
    "versionDefines": [],
    "noEngineReferences": false
}