%YAML 1.1
%TAG !u! tag:unity3d.com,2011:
--- !u!114 &11400000
MonoBehaviour:
  m_ObjectHideFlags: 0
  m_CorrespondingSourceObject: {fileID: 0}
  m_PrefabInstance: {fileID: 0}
  m_PrefabAsset: {fileID: 0}
  m_GameObject: {fileID: 0}
  m_Enabled: 1
  m_EditorHideFlags: 0
  m_Script: {fileID: 11500000, guid: 276e1f78d0d4d904a9b0d7233fd03657, type: 3}
  m_Name: WeaponSettings_fast
  m_EditorClassIdentifier: 
  CoolDown: 0.01
  Damage: 15
  BulletId: 2
  HitPrefabFx: {fileID: 5240630569151085866, guid: 536639befec4d324a93539da7aa573e8, type: 3}
  BulletLifeTime: 0.6
  BulletSpeed: 100
